<?xml version="1.0" encoding="UTF-8" standalone="no"?>
<!-- Created with Inkscape (http://www.inkscape.org/) -->

<svg
   xmlns:dc="http://purl.org/dc/elements/1.1/"
   xmlns:cc="http://creativecommons.org/ns#"
   xmlns:rdf="http://www.w3.org/1999/02/22-rdf-syntax-ns#"
   xmlns:svg="http://www.w3.org/2000/svg"
   xmlns="http://www.w3.org/2000/svg"
   xmlns:xlink="http://www.w3.org/1999/xlink"
   xmlns:sodipodi="http://sodipodi.sourceforge.net/DTD/sodipodi-0.dtd"
   xmlns:inkscape="http://www.inkscape.org/namespaces/inkscape"
   width="210mm"
   height="297mm"
   viewBox="0 0 210 297"
   version="1.1"
   id="svg6291"
   inkscape:version="0.92.2 2405546, 2018-03-11"
   sodipodi:docname="robot_cooperation.svg">
  <defs
     id="defs6285">
    <linearGradient
       id="bv"
       x1="-57.433998"
       x2="-57.433998"
       y1="306.26001"
       y2="287.59"
       gradientTransform="matrix(0.26458333,0,0,0.26458333,150.12529,62.494425)"
       gradientUnits="userSpaceOnUse">
      <stop
         stop-color="#fff"
         offset="0"
         id="stop2413" />
      <stop
         stop-color="#A7A9AC"
         offset="1"
         id="stop2415" />
    </linearGradient>
    <linearGradient
       id="av"
       x1="-6.2255998"
       x2="34.389"
       y1="317.76001"
       y2="317.76001"
       gradientTransform="matrix(0.26458333,0,0,0.26458333,150.12529,62.494425)"
       gradientUnits="userSpaceOnUse">
      <stop
         stop-color="#58595B"
         offset=".069892"
         id="stop2420" />
      <stop
         stop-color="#fff"
         offset=".3602"
         id="stop2422" />
      <stop
         stop-color="#58595B"
         offset="1"
         id="stop2424" />
    </linearGradient>
    <linearGradient
       id="bf"
       x1="-4.8997002"
       x2="33.063"
       y1="306.56"
       y2="306.56"
       gradientTransform="translate(207.97,170.18)"
       gradientUnits="userSpaceOnUse">
      <stop
         stop-color="#58595B"
         offset=".069892"
         id="stop2429" />
      <stop
         stop-color="#fff"
         offset=".3871"
         id="stop2431" />
      <stop
         stop-color="#58595B"
         offset=".9731"
         id="stop2433" />
    </linearGradient>
    <linearGradient
       id="bg"
       x1="1.4907"
       x2="24.482"
       y1="295.67001"
       y2="295.67001"
       gradientTransform="translate(207.97,170.18)"
       gradientUnits="userSpaceOnUse">
      <stop
         stop-color="#BCBEC0"
         offset=".069892"
         id="stop2438" />
      <stop
         stop-color="#fff"
         offset=".3871"
         id="stop2440" />
      <stop
         stop-color="#BCBEC0"
         offset=".9731"
         id="stop2442" />
    </linearGradient>
    <radialGradient
       id="bh"
       cx="12.533"
       cy="289.51001"
       r="6.3488002"
       gradientTransform="matrix(0.04434342,0.01760435,-0.0179666,0.042557,125.5301,63.330289)"
       gradientUnits="userSpaceOnUse">
      <stop
         stop-color="#A7A9AC"
         offset=".069892"
         id="stop2447" />
      <stop
         stop-color="#fff"
         offset=".457"
         id="stop2449" />
      <stop
         stop-color="#A7A9AC"
         offset="1"
         id="stop2451" />
    </radialGradient>
    <linearGradient
       id="bi"
       x1="71.584"
       x2="71.584"
       y1="288.01999"
       y2="307.22"
       gradientTransform="matrix(0.26458333,0,0,0.26458333,150.12529,62.494425)"
       gradientUnits="userSpaceOnUse">
      <stop
         stop-color="#fff"
         offset="0"
         id="stop2456" />
      <stop
         stop-color="#A7A9AC"
         offset="1"
         id="stop2458" />
    </linearGradient>
    <linearGradient
       id="bj"
       x1="40.991001"
       x2="40.991001"
       y1="306.26001"
       y2="287.59"
       gradientTransform="matrix(-0.26458333,0,0,0.26458333,277.7841,62.494425)"
       gradientUnits="userSpaceOnUse">
      <stop
         stop-color="#fff"
         offset="0"
         id="stop2465" />
      <stop
         stop-color="#A7A9AC"
         offset="1"
         id="stop2467" />
    </linearGradient>
    <linearGradient
       id="bk"
       x1="92.198997"
       x2="132.81"
       y1="317.76001"
       y2="317.76001"
       gradientTransform="matrix(-0.26458333,0,0,0.26458333,277.7841,62.494425)"
       gradientUnits="userSpaceOnUse">
      <stop
         stop-color="#58595B"
         offset=".069892"
         id="stop2472" />
      <stop
         stop-color="#fff"
         offset=".3602"
         id="stop2474" />
      <stop
         stop-color="#58595B"
         offset="1"
         id="stop2476" />
    </linearGradient>
    <linearGradient
       id="bx"
       x1="93.525002"
       x2="131.49001"
       y1="306.56"
       y2="306.56"
       gradientTransform="matrix(-1,0,0,1,690.46,170.18)"
       gradientUnits="userSpaceOnUse">
      <stop
         stop-color="#58595B"
         offset=".069892"
         id="stop2481" />
      <stop
         stop-color="#fff"
         offset=".3871"
         id="stop2483" />
      <stop
         stop-color="#58595B"
         offset=".9731"
         id="stop2485" />
    </linearGradient>
    <linearGradient
       id="bl"
       x1="99.915001"
       x2="122.91"
       y1="295.67001"
       y2="295.67001"
       gradientTransform="matrix(-1,0,0,1,690.46,170.18)"
       gradientUnits="userSpaceOnUse">
      <stop
         stop-color="#BCBEC0"
         offset=".069892"
         id="stop2490" />
      <stop
         stop-color="#fff"
         offset=".3871"
         id="stop2492" />
      <stop
         stop-color="#BCBEC0"
         offset=".9731"
         id="stop2494" />
    </linearGradient>
    <radialGradient
       id="bm"
       cx="110.96"
       cy="289.51001"
       r="6.3488002"
       gradientTransform="matrix(-0.04434342,-0.01760435,-0.0179666,0.042557,146.92536,71.82421)"
       gradientUnits="userSpaceOnUse">
      <stop
         stop-color="#A7A9AC"
         offset=".069892"
         id="stop2499" />
      <stop
         stop-color="#fff"
         offset=".457"
         id="stop2501" />
      <stop
         stop-color="#A7A9AC"
         offset="1"
         id="stop2503" />
    </radialGradient>
    <linearGradient
       id="bn"
       x1="170.00999"
       x2="170.00999"
       y1="288.01999"
       y2="307.22"
       gradientTransform="matrix(-0.26458333,0,0,0.26458333,277.7841,62.494425)"
       gradientUnits="userSpaceOnUse">
      <stop
         stop-color="#fff"
         offset="0"
         id="stop2508" />
      <stop
         stop-color="#A7A9AC"
         offset="1"
         id="stop2510" />
    </linearGradient>
    <radialGradient
       id="bo"
       cx="192.03"
       cy="478.78"
       r="45.171001"
       gradientTransform="matrix(0.04771009,0,0,0.04619413,136.48749,26.523191)"
       gradientUnits="userSpaceOnUse">
      <stop
         stop-color="#fff"
         offset="0"
         id="stop2525" />
      <stop
         offset="1"
         id="stop2527" />
    </radialGradient>
    <radialGradient
       id="bp"
       cx="192.03"
       cy="478.78"
       r="35.766998"
       gradientTransform="matrix(0.04771009,0,0,0.04619413,136.48749,26.523191)"
       gradientUnits="userSpaceOnUse">
      <stop
         stop-color="#BE1E2D"
         offset="0"
         id="stop2532" />
      <stop
         stop-color="#BC1E2D"
         offset=".3953"
         id="stop2534" />
      <stop
         stop-color="#B51D2B"
         offset=".5377"
         id="stop2536" />
      <stop
         stop-color="#AA1B28"
         offset=".6393"
         id="stop2538" />
      <stop
         stop-color="#991824"
         offset=".7214"
         id="stop2540" />
      <stop
         stop-color="#83151F"
         offset=".7917"
         id="stop2542" />
      <stop
         stop-color="#671018"
         offset=".854"
         id="stop2544" />
      <stop
         stop-color="#470B11"
         offset=".9104"
         id="stop2546" />
      <stop
         stop-color="#230508"
         offset=".9604"
         id="stop2548" />
      <stop
         offset="1"
         id="stop2550" />
    </radialGradient>
    <radialGradient
       id="bq"
       cx="192.03"
       cy="478.78"
       r="27.753"
       gradientTransform="matrix(0.04771009,0,0,0.04619413,136.48749,26.523191)"
       gradientUnits="userSpaceOnUse">
      <stop
         stop-color="#BE1E2D"
         offset="0"
         id="stop2555" />
      <stop
         stop-color="#B01E2C"
         offset=".1392"
         id="stop2557" />
      <stop
         stop-color="#8A1E29"
         offset=".4034"
         id="stop2559" />
      <stop
         stop-color="#4F1F24"
         offset=".7616"
         id="stop2561" />
      <stop
         stop-color="#231F20"
         offset="1"
         id="stop2563" />
    </radialGradient>
    <radialGradient
       id="br"
       cx="181.10001"
       cy="478.45999"
       r="10.967"
       gradientTransform="matrix(0.04580306,0.01335409,-0.02242631,0.07117235,127.14839,50.527839)"
       gradientUnits="userSpaceOnUse">
      <stop
         stop-color="#fff"
         stop-opacity=".3"
         offset="0"
         id="stop2568-1" />
      <stop
         stop-color="#CEFFFF"
         stop-opacity="0"
         offset=".7204"
         id="stop2570-3" />
    </radialGradient>
    <radialGradient
       id="bs"
       cx="247.63"
       cy="390.13"
       r="18.761999"
       gradientTransform="matrix(-0.04771009,0,0,0.04619413,167.65744,12.545468)"
       gradientUnits="userSpaceOnUse">
      <stop
         offset=".043011"
         id="stop2577" />
      <stop
         offset=".6774"
         id="stop2579" />
      <stop
         stop-color="#040101"
         offset=".6792"
         id="stop2581" />
      <stop
         stop-color="#29080B"
         offset=".696"
         id="stop2583" />
      <stop
         stop-color="#480E15"
         offset=".7145"
         id="stop2585" />
      <stop
         stop-color="#64131C"
         offset=".7353"
         id="stop2587" />
      <stop
         stop-color="#7A1722"
         offset=".7588"
         id="stop2589" />
      <stop
         stop-color="#8B1A27"
         offset=".7863"
         id="stop2591" />
      <stop
         stop-color="#961C2B"
         offset=".8202"
         id="stop2593" />
      <stop
         stop-color="#9D1E2C"
         offset=".8678"
         id="stop2595" />
      <stop
         stop-color="#9F1E2D"
         offset="1"
         id="stop2597" />
    </radialGradient>
    <radialGradient
       id="bt"
       cx="202.09"
       cy="370.48001"
       r="13.726"
       gradientTransform="matrix(-0.04771009,0,0,0.04619413,167.65744,12.545468)"
       gradientUnits="userSpaceOnUse">
      <stop
         offset=".043011"
         id="stop2608" />
      <stop
         offset=".6774"
         id="stop2610" />
      <stop
         stop-color="#040101"
         offset=".6792"
         id="stop2612" />
      <stop
         stop-color="#29080B"
         offset=".696"
         id="stop2614" />
      <stop
         stop-color="#480E15"
         offset=".7145"
         id="stop2616" />
      <stop
         stop-color="#64131C"
         offset=".7353"
         id="stop2618" />
      <stop
         stop-color="#7A1722"
         offset=".7588"
         id="stop2620" />
      <stop
         stop-color="#8B1A27"
         offset=".7863"
         id="stop2622" />
      <stop
         stop-color="#961C2B"
         offset=".8202"
         id="stop2624" />
      <stop
         stop-color="#9D1E2C"
         offset=".8678"
         id="stop2626" />
      <stop
         stop-color="#9F1E2D"
         offset="1"
         id="stop2628" />
    </radialGradient>
    <radialGradient
       id="bu"
       cx="58.502998"
       cy="390.13"
       r="18.761999"
       gradientTransform="matrix(0.04771009,0,0,0.04619413,140.3105,12.545468)"
       gradientUnits="userSpaceOnUse">
      <stop
         offset=".043011"
         id="stop2635" />
      <stop
         offset=".6774"
         id="stop2637" />
      <stop
         stop-color="#040101"
         offset=".6792"
         id="stop2639" />
      <stop
         stop-color="#29080B"
         offset=".696"
         id="stop2641" />
      <stop
         stop-color="#480E15"
         offset=".7145"
         id="stop2643" />
      <stop
         stop-color="#64131C"
         offset=".7353"
         id="stop2645" />
      <stop
         stop-color="#7A1722"
         offset=".7588"
         id="stop2647" />
      <stop
         stop-color="#8B1A27"
         offset=".7863"
         id="stop2649" />
      <stop
         stop-color="#961C2B"
         offset=".8202"
         id="stop2651" />
      <stop
         stop-color="#9D1E2C"
         offset=".8678"
         id="stop2653" />
      <stop
         stop-color="#9F1E2D"
         offset="1"
         id="stop2655" />
    </radialGradient>
    <radialGradient
       id="bw"
       cx="12.958"
       cy="370.48001"
       r="13.726"
       gradientTransform="matrix(0.04771009,0,0,0.04619413,140.3105,12.545468)"
       gradientUnits="userSpaceOnUse">
      <stop
         offset=".043011"
         id="stop2666" />
      <stop
         offset=".6774"
         id="stop2668" />
      <stop
         stop-color="#040101"
         offset=".6792"
         id="stop2670" />
      <stop
         stop-color="#29080B"
         offset=".696"
         id="stop2672" />
      <stop
         stop-color="#480E15"
         offset=".7145"
         id="stop2674" />
      <stop
         stop-color="#64131C"
         offset=".7353"
         id="stop2676" />
      <stop
         stop-color="#7A1722"
         offset=".7588"
         id="stop2678" />
      <stop
         stop-color="#8B1A27"
         offset=".7863"
         id="stop2680" />
      <stop
         stop-color="#961C2B"
         offset=".8202"
         id="stop2682" />
      <stop
         stop-color="#9D1E2C"
         offset=".8678"
         id="stop2684" />
      <stop
         stop-color="#9F1E2D"
         offset="1"
         id="stop2686" />
    </radialGradient>
    <linearGradient
       gradientTransform="matrix(0.26458333,0,0,0.26458333,95.099893,17.467637)"
       id="am"
       x1="400"
       x2="400"
       y1="496.82001"
       y2="537.57001"
       gradientUnits="userSpaceOnUse">
      <stop
         stop-color="#231F20"
         offset="0"
         id="stop2695" />
      <stop
         offset=".5"
         id="stop2697" />
      <stop
         stop-color="#231F20"
         offset="1"
         id="stop2699" />
    </linearGradient>
    <radialGradient
       id="bh-1"
       cx="12.533"
       cy="289.51001"
       r="6.3488002"
       gradientTransform="matrix(0.05093073,-0.00674263,0.00703755,0.04879641,81.059578,64.055726)"
       gradientUnits="userSpaceOnUse">
      <stop
         stop-color="#A7A9AC"
         offset=".069892"
         id="stop2447-0" />
      <stop
         stop-color="#fff"
         offset=".457"
         id="stop2449-9" />
      <stop
         stop-color="#A7A9AC"
         offset="1"
         id="stop2451-4" />
    </radialGradient>
    <radialGradient
       id="bm-3"
       cx="110.96"
       cy="289.51001"
       r="6.3488002"
       gradientTransform="matrix(-0.05093073,0.00674263,0.00703755,0.04879641,105.63315,60.802473)"
       gradientUnits="userSpaceOnUse">
      <stop
         stop-color="#A7A9AC"
         offset=".069892"
         id="stop2499-1" />
      <stop
         stop-color="#fff"
         offset=".457"
         id="stop2501-3" />
      <stop
         stop-color="#A7A9AC"
         offset="1"
         id="stop2503-8" />
    </radialGradient>
    <radialGradient
       id="bo-8"
       cx="192.03"
       cy="478.78"
       r="45.171001"
       gradientTransform="matrix(0.05137512,0,0,0.04930128,71.090583,74.145173)"
       gradientUnits="userSpaceOnUse">
      <stop
         stop-color="#fff"
         offset="0"
         id="stop2525-8" />
      <stop
         offset="1"
         id="stop2527-4" />
    </radialGradient>
    <radialGradient
       id="bp-0"
       cx="192.03"
       cy="478.78"
       r="35.766998"
       gradientTransform="matrix(0.05137512,0,0,0.04930128,71.090583,74.145173)"
       gradientUnits="userSpaceOnUse">
      <stop
         stop-color="#BE1E2D"
         offset="0"
         id="stop2532-0" />
      <stop
         stop-color="#BC1E2D"
         offset=".3953"
         id="stop2534-8" />
      <stop
         stop-color="#B51D2B"
         offset=".5377"
         id="stop2536-6" />
      <stop
         stop-color="#AA1B28"
         offset=".6393"
         id="stop2538-8" />
      <stop
         stop-color="#991824"
         offset=".7214"
         id="stop2540-2" />
      <stop
         stop-color="#83151F"
         offset=".7917"
         id="stop2542-3" />
      <stop
         stop-color="#671018"
         offset=".854"
         id="stop2544-8" />
      <stop
         stop-color="#470B11"
         offset=".9104"
         id="stop2546-5" />
      <stop
         stop-color="#230508"
         offset=".9604"
         id="stop2548-0" />
      <stop
         offset="1"
         id="stop2550-5" />
    </radialGradient>
    <radialGradient
       id="bq-9"
       cx="192.03"
       cy="478.78"
       r="27.753"
       gradientTransform="matrix(0.05137512,0,0,0.04930128,71.090583,74.145173)"
       gradientUnits="userSpaceOnUse">
      <stop
         stop-color="#BE1E2D"
         offset="0"
         id="stop2555-2" />
      <stop
         stop-color="#B01E2C"
         offset=".1392"
         id="stop2557-6" />
      <stop
         stop-color="#8A1E29"
         offset=".4034"
         id="stop2559-8" />
      <stop
         stop-color="#4F1F24"
         offset=".7616"
         id="stop2561-5" />
      <stop
         stop-color="#231F20"
         offset="1"
         id="stop2563-2" />
    </radialGradient>
    <radialGradient
       id="br-8"
       cx="181.10001"
       cy="478.45999"
       r="10.967"
       gradientTransform="matrix(0.05093073,-0.00674263,0.01136846,0.07882571,78.987511,49.688601)"
       gradientUnits="userSpaceOnUse">
      <stop
         stop-color="#fff"
         stop-opacity=".3"
         offset="0"
         id="stop2568-1-3" />
      <stop
         stop-color="#CEFFFF"
         stop-opacity="0"
         offset=".7204"
         id="stop2570-3-6" />
    </radialGradient>
    <radialGradient
       id="bs-7"
       cx="247.63"
       cy="390.13"
       r="18.761999"
       gradientTransform="matrix(-0.05137512,0,0,0.04930128,100.53829,74.145173)"
       gradientUnits="userSpaceOnUse">
      <stop
         offset=".043011"
         id="stop2577-8" />
      <stop
         offset=".6774"
         id="stop2579-7" />
      <stop
         stop-color="#040101"
         offset=".6792"
         id="stop2581-2" />
      <stop
         stop-color="#29080B"
         offset=".696"
         id="stop2583-6" />
      <stop
         stop-color="#480E15"
         offset=".7145"
         id="stop2585-6" />
      <stop
         stop-color="#64131C"
         offset=".7353"
         id="stop2587-2" />
      <stop
         stop-color="#7A1722"
         offset=".7588"
         id="stop2589-9" />
      <stop
         stop-color="#8B1A27"
         offset=".7863"
         id="stop2591-7" />
      <stop
         stop-color="#961C2B"
         offset=".8202"
         id="stop2593-0" />
      <stop
         stop-color="#9D1E2C"
         offset=".8678"
         id="stop2595-3" />
      <stop
         stop-color="#9F1E2D"
         offset="1"
         id="stop2597-7" />
    </radialGradient>
    <radialGradient
       id="bt-2"
       cx="202.09"
       cy="370.48001"
       r="13.726"
       gradientTransform="matrix(-0.05137512,0,0,0.04930128,100.53829,74.145173)"
       gradientUnits="userSpaceOnUse">
      <stop
         offset=".043011"
         id="stop2608-3" />
      <stop
         offset=".6774"
         id="stop2610-5" />
      <stop
         stop-color="#040101"
         offset=".6792"
         id="stop2612-1" />
      <stop
         stop-color="#29080B"
         offset=".696"
         id="stop2614-7" />
      <stop
         stop-color="#480E15"
         offset=".7145"
         id="stop2616-8" />
      <stop
         stop-color="#64131C"
         offset=".7353"
         id="stop2618-9" />
      <stop
         stop-color="#7A1722"
         offset=".7588"
         id="stop2620-4" />
      <stop
         stop-color="#8B1A27"
         offset=".7863"
         id="stop2622-1" />
      <stop
         stop-color="#961C2B"
         offset=".8202"
         id="stop2624-6" />
      <stop
         stop-color="#9D1E2C"
         offset=".8678"
         id="stop2626-4" />
      <stop
         stop-color="#9F1E2D"
         offset="1"
         id="stop2628-3" />
    </radialGradient>
    <radialGradient
       id="bu-5"
       cx="58.502998"
       cy="390.13"
       r="18.761999"
       gradientTransform="matrix(0.05137512,0,0,0.04930128,71.090583,74.145173)"
       gradientUnits="userSpaceOnUse">
      <stop
         offset=".043011"
         id="stop2635-4" />
      <stop
         offset=".6774"
         id="stop2637-8" />
      <stop
         stop-color="#040101"
         offset=".6792"
         id="stop2639-7" />
      <stop
         stop-color="#29080B"
         offset=".696"
         id="stop2641-3" />
      <stop
         stop-color="#480E15"
         offset=".7145"
         id="stop2643-3" />
      <stop
         stop-color="#64131C"
         offset=".7353"
         id="stop2645-5" />
      <stop
         stop-color="#7A1722"
         offset=".7588"
         id="stop2647-0" />
      <stop
         stop-color="#8B1A27"
         offset=".7863"
         id="stop2649-1" />
      <stop
         stop-color="#961C2B"
         offset=".8202"
         id="stop2651-4" />
      <stop
         stop-color="#9D1E2C"
         offset=".8678"
         id="stop2653-5" />
      <stop
         stop-color="#9F1E2D"
         offset="1"
         id="stop2655-7" />
    </radialGradient>
    <radialGradient
       id="bw-0"
       cx="12.958"
       cy="370.48001"
       r="13.726"
       gradientTransform="matrix(0.05137512,0,0,0.04930128,71.090583,74.145173)"
       gradientUnits="userSpaceOnUse">
      <stop
         offset=".043011"
         id="stop2666-7" />
      <stop
         offset=".6774"
         id="stop2668-8" />
      <stop
         stop-color="#040101"
         offset=".6792"
         id="stop2670-9" />
      <stop
         stop-color="#29080B"
         offset=".696"
         id="stop2672-9" />
      <stop
         stop-color="#480E15"
         offset=".7145"
         id="stop2674-3" />
      <stop
         stop-color="#64131C"
         offset=".7353"
         id="stop2676-9" />
      <stop
         stop-color="#7A1722"
         offset=".7588"
         id="stop2678-4" />
      <stop
         stop-color="#8B1A27"
         offset=".7863"
         id="stop2680-6" />
      <stop
         stop-color="#961C2B"
         offset=".8202"
         id="stop2682-4" />
      <stop
         stop-color="#9D1E2C"
         offset=".8678"
         id="stop2684-5" />
      <stop
         stop-color="#9F1E2D"
         offset="1"
         id="stop2686-5" />
    </radialGradient>
    <linearGradient
       inkscape:collect="always"
       xlink:href="#bv"
       id="linearGradient7504"
       gradientUnits="userSpaceOnUse"
       gradientTransform="matrix(0.04434342,0.01760435,-0.0179666,0.042557,125.5301,63.330289)"
       x1="-57.433998"
       y1="306.26001"
       x2="-57.433998"
       y2="287.59" />
    <linearGradient
       inkscape:collect="always"
       xlink:href="#av"
       id="linearGradient7506"
       gradientUnits="userSpaceOnUse"
       gradientTransform="matrix(0.04771009,0,0,0.04619413,140.3105,12.545468)"
       x1="-6.2255998"
       y1="317.76001"
       x2="34.389"
       y2="317.76001" />
    <linearGradient
       inkscape:collect="always"
       xlink:href="#bf"
       id="linearGradient7508"
       gradientUnits="userSpaceOnUse"
       gradientTransform="translate(207.97,170.18)"
       x1="-4.8997002"
       y1="306.56"
       x2="33.063"
       y2="306.56" />
    <linearGradient
       inkscape:collect="always"
       xlink:href="#bg"
       id="linearGradient7510"
       gradientUnits="userSpaceOnUse"
       gradientTransform="translate(207.97,170.18)"
       x1="1.4907"
       y1="295.67001"
       x2="24.482"
       y2="295.67001" />
    <linearGradient
       inkscape:collect="always"
       xlink:href="#bi"
       id="linearGradient7512"
       gradientUnits="userSpaceOnUse"
       gradientTransform="matrix(0.04434342,0.01760435,-0.0179666,0.042557,125.5301,63.330289)"
       x1="71.584"
       y1="288.01999"
       x2="71.584"
       y2="307.22" />
    <linearGradient
       inkscape:collect="always"
       xlink:href="#bj"
       id="linearGradient7514"
       gradientUnits="userSpaceOnUse"
       gradientTransform="matrix(-0.04434342,-0.01760435,-0.0179666,0.042557,146.92536,71.82421)"
       x1="40.991001"
       y1="306.26001"
       x2="40.991001"
       y2="287.59" />
    <linearGradient
       inkscape:collect="always"
       xlink:href="#bk"
       id="linearGradient7516"
       gradientUnits="userSpaceOnUse"
       gradientTransform="matrix(-0.04771009,0,0,0.04619413,163.33014,12.545468)"
       x1="92.198997"
       y1="317.76001"
       x2="132.81"
       y2="317.76001" />
    <linearGradient
       inkscape:collect="always"
       xlink:href="#bx"
       id="linearGradient7518"
       gradientUnits="userSpaceOnUse"
       gradientTransform="matrix(-1,0,0,1,690.46,170.18)"
       x1="93.525002"
       y1="306.56"
       x2="131.49001"
       y2="306.56" />
    <linearGradient
       inkscape:collect="always"
       xlink:href="#bl"
       id="linearGradient7520"
       gradientUnits="userSpaceOnUse"
       gradientTransform="matrix(-1,0,0,1,690.46,170.18)"
       x1="99.915001"
       y1="295.67001"
       x2="122.91"
       y2="295.67001" />
    <linearGradient
       inkscape:collect="always"
       xlink:href="#bn"
       id="linearGradient7522"
       gradientUnits="userSpaceOnUse"
       gradientTransform="matrix(-0.04434342,-0.01760435,-0.0179666,0.042557,146.92536,71.82421)"
       x1="170.00999"
       y1="288.01999"
       x2="170.00999"
       y2="307.22" />
    <linearGradient
       inkscape:collect="always"
       xlink:href="#am"
       id="linearGradient7524"
       gradientUnits="userSpaceOnUse"
       gradientTransform="matrix(0.04434342,0.01760435,-0.0179666,0.042557,119.36555,52.426761)"
       x1="400"
       y1="496.82001"
       x2="400"
       y2="537.57001" />
    <linearGradient
       inkscape:collect="always"
       xlink:href="#bv"
       id="linearGradient7526"
       gradientUnits="userSpaceOnUse"
       gradientTransform="matrix(0.05093073,-0.00674263,0.00703755,0.04879641,81.059578,64.055726)"
       x1="-57.433998"
       y1="306.26001"
       x2="-57.433998"
       y2="287.59" />
    <linearGradient
       inkscape:collect="always"
       xlink:href="#av"
       id="linearGradient7528"
       gradientUnits="userSpaceOnUse"
       gradientTransform="matrix(0.05137512,0,0,0.04930128,71.090583,74.145173)"
       x1="-6.2255998"
       y1="317.76001"
       x2="34.389"
       y2="317.76001" />
    <linearGradient
       inkscape:collect="always"
       xlink:href="#bf"
       id="linearGradient7530"
       gradientUnits="userSpaceOnUse"
       gradientTransform="translate(207.97,170.18)"
       x1="-4.8997002"
       y1="306.56"
       x2="33.063"
       y2="306.56" />
    <linearGradient
       inkscape:collect="always"
       xlink:href="#bg"
       id="linearGradient7532"
       gradientUnits="userSpaceOnUse"
       gradientTransform="translate(207.97,170.18)"
       x1="1.4907"
       y1="295.67001"
       x2="24.482"
       y2="295.67001" />
    <linearGradient
       inkscape:collect="always"
       xlink:href="#bi"
       id="linearGradient7534"
       gradientUnits="userSpaceOnUse"
       gradientTransform="matrix(0.05093073,-0.00674263,0.00703755,0.04879641,81.059578,64.055726)"
       x1="71.584"
       y1="288.01999"
       x2="71.584"
       y2="307.22" />
    <linearGradient
       inkscape:collect="always"
       xlink:href="#bj"
       id="linearGradient7536"
       gradientUnits="userSpaceOnUse"
       gradientTransform="matrix(-0.05093073,0.00674263,0.00703755,0.04879641,105.63315,60.802473)"
       x1="40.991001"
       y1="306.26001"
       x2="40.991001"
       y2="287.59" />
    <linearGradient
       inkscape:collect="always"
       xlink:href="#bk"
       id="linearGradient7538"
       gradientUnits="userSpaceOnUse"
       gradientTransform="matrix(-0.05137512,0,0,0.04930128,95.878563,74.145173)"
       x1="92.198997"
       y1="317.76001"
       x2="132.81"
       y2="317.76001" />
    <linearGradient
       inkscape:collect="always"
       xlink:href="#bx"
       id="linearGradient7540"
       gradientUnits="userSpaceOnUse"
       gradientTransform="matrix(-1,0,0,1,690.46,170.18)"
       x1="93.525002"
       y1="306.56"
       x2="131.49001"
       y2="306.56" />
    <linearGradient
       inkscape:collect="always"
       xlink:href="#bl"
       id="linearGradient7542"
       gradientUnits="userSpaceOnUse"
       gradientTransform="matrix(-1,0,0,1,690.46,170.18)"
       x1="99.915001"
       y1="295.67001"
       x2="122.91"
       y2="295.67001" />
    <linearGradient
       inkscape:collect="always"
       xlink:href="#bn"
       id="linearGradient7544"
       gradientUnits="userSpaceOnUse"
       gradientTransform="matrix(-0.05093073,0.00674263,0.00703755,0.04879641,105.63315,60.802473)"
       x1="170.00999"
       y1="288.01999"
       x2="170.00999"
       y2="307.22" />
    <linearGradient
       inkscape:collect="always"
       xlink:href="#am"
       id="linearGradient7546"
       gradientUnits="userSpaceOnUse"
       gradientTransform="matrix(0.05093073,-0.00674263,0.00703755,0.04879641,69.269862,57.15382)"
       x1="400"
       y1="496.82001"
       x2="400"
       y2="537.57001" />
  </defs>
  <sodipodi:namedview
     id="base"
     pagecolor="#ffffff"
     bordercolor="#666666"
     borderopacity="1.0"
     inkscape:pageopacity="0.0"
     inkscape:pageshadow="2"
     inkscape:zoom="1.979899"
     inkscape:cx="456.24883"
     inkscape:cy="788.00718"
     inkscape:document-units="mm"
     inkscape:current-layer="layer1"
     showgrid="false"
     inkscape:window-width="1920"
     inkscape:window-height="1056"
     inkscape:window-x="0"
     inkscape:window-y="0"
     inkscape:window-maximized="1" />
  <metadata
     id="metadata6288">
    <rdf:RDF>
      <cc:Work
         rdf:about="">
        <dc:format>image/svg+xml</dc:format>
        <dc:type
           rdf:resource="http://purl.org/dc/dcmitype/StillImage" />
        <dc:title></dc:title>
      </cc:Work>
    </rdf:RDF>
  </metadata>
  <g
     inkscape:label="Calque 1"
     inkscape:groupmode="layer"
     id="layer1">
    <ellipse
       style="fill:#990000;fill-opacity:0.76078431;stroke-width:0.26458332"
       id="path7548-3"
       cx="112.19987"
       cy="96.773087"
       rx="0.88866156"
       ry="0.83793211" />
    <ellipse
       style="fill:#990000;fill-opacity:0.76078431;stroke-width:0.26458332"
       id="path7548"
       cx="99.771721"
       cy="96.773087"
       rx="0.8886615"
       ry="0.83793205" />
    <g
       id="g7940"
       transform="matrix(0.98327668,-0.0762513,0.08123195,0.92298818,-8.4425293,15.693405)">
      <path
         id="path2418"
         d="m 114.84254,74.07972 c 0,0 0.24558,0.117367 0.15715,0.216428 0,0 2.81542,1.008405 4.41581,1.926988 l 0.80425,0.155319 0.23357,-0.55324 -1.90546,-0.845912 z"
         style="fill:url(#linearGradient7504);stroke-width:0.04694053"
         inkscape:connector-curvature="0" />
      <rect
         transform="matrix(0.929435,0.36898589,-0.38893693,0.92126438,0,0)"
         id="rect2427"
         height="0.86383033"
         width="1.9370294"
         y="26.792664"
         x="140.01137"
         style="fill:url(#linearGradient7506);stroke-width:0.04694599" />
      <polygon
         id="polygon2436"
         points="205,474.9 239.1,474.9 241,478.6 203.1,478.6 "
         style="fill:url(#linearGradient7508)"
         transform="matrix(0.04434342,0.01760435,-0.0179666,0.042557,119.36555,52.426759)" />
      <polygon
         id="polygon2445"
         points="230.2,458.7 232.2,466.4 232.5,467.3 231.4,475 210.5,475 209.5,467.3 209.7,466.4 211.7,458.7 212.2,456.7 229.7,456.7 "
         style="fill:url(#linearGradient7510)"
         transform="matrix(0.04434342,0.01760435,-0.0179666,0.042557,119.36555,52.426759)" />
      <path
         id="path2454"
         d="m 121.29267,75.885138 -0.66515,-0.264065 c 0.12103,-0.0414 0.25429,-0.03818 0.38289,0.01287 0.12415,0.04929 0.22412,0.143636 0.28226,0.251191 z"
         style="fill:url(#bh);stroke-width:0.04694053"
         inkscape:connector-curvature="0" />
      <path
         id="path2461"
         d="m 121.30781,76.070031 0.006,0.230966 1.12449,0.267539 c 0,0 3.47652,1.380181 3.96713,1.346379 l -0.49061,0.0338 c 0,0 -3.8042,-1.033248 -4.827,-1.00203 0,0 -0.0146,-0.100222 -0.15418,-0.284811 0,0 -0.10145,-0.348354 -0.41316,-0.382658 -0.32416,-0.02933 0.78729,-0.209191 0.78729,-0.209191 z"
         style="fill:url(#linearGradient7512);stroke-width:0.04694053"
         inkscape:connector-curvature="0" />
      <path
         id="path2463"
         d="m 137.03027,84.990131 c -0.16498,0.133261 -0.39698,0.155442 -0.59558,0.06169 -0.17377,-0.07893 -0.4336,-0.187054 -0.70505,-0.279909 -0.0506,-0.01511 -0.0993,-0.03447 -0.14993,-0.04959 -0.2573,-0.0773 -0.51293,-0.134065 -0.70047,-0.119084 -0.0809,0.0076 -0.15027,0.02481 -0.20287,0.06356 -0.20237,0.14823 -0.69768,0.046 -1.12709,-0.08968 -0.0816,-0.02743 -0.15879,-0.05311 -0.23154,-0.07701 -0.30692,-0.106942 -0.54099,-0.214772 -0.54099,-0.214772 0,0 -0.49462,-0.251024 -0.6952,-0.107045 -0.0303,0.02275 -0.0554,0.05753 -0.0733,0.100083 l -0.31621,0.749005 c 0,0 -0.22202,0.746646 -0.17313,1.317611 0.0252,0.308154 -0.17897,1.037041 -0.3781,1.643694 l -0.60752,-0.24118 c 0.0892,-0.272653 0.14073,-0.45594 0.13473,-0.503042 0,0 0.21553,-0.87842 0.11209,-1.381588 -0.10341,-0.503169 0.22043,-1.368395 0.22043,-1.368395 l -0.76271,-0.302794 c 0,0 -0.13953,-0.184586 -0.0216,-0.341469 l -0.11291,-0.174024 c 0,0 -1.06279,1.376843 -1.33665,1.228369 l -0.0626,0.07455 -2.04171,-0.780745 -2.02015,-0.831813 0.009,-0.09568 c -0.3026,-0.08038 -0.0646,-1.784666 -0.0646,-1.784666 l -0.20636,0.04727 c -0.0278,0.187808 -0.2667,0.227039 -0.2667,0.227039 l -0.76272,-0.302795 c 0,0 -0.3948,0.837056 -0.83239,1.12545 -0.43758,0.288394 -0.91916,1.061187 -0.91916,1.061187 -0.0365,0.02524 -0.13418,0.195181 -0.26774,0.450231 l -0.6075,-0.241179 c 0.29671,-0.567923 0.67382,-1.228154 0.91908,-1.428923 0.45219,-0.372037 0.82941,-1.057067 0.82941,-1.057067 l 0.31622,-0.749003 c 0.0224,-0.04079 0.0297,-0.08262 0.0205,-0.121174 -0.0371,-0.243294 -0.57302,-0.396437 -0.57302,-0.396437 0,0 -0.23861,-0.0848 -0.54099,-0.214773 l -0.22076,-0.102556 c -0.40869,-0.197032 -0.83573,-0.460976 -0.8728,-0.704269 -0.0113,-0.05913 -0.0421,-0.121059 -0.0942,-0.181509 -0.12286,-0.138217 -0.33992,-0.27408 -0.58549,-0.391446 -0.047,-0.02363 -0.094,-0.04724 -0.14718,-0.06836 -0.26067,-0.118401 -0.5241,-0.218001 -0.70506,-0.279909 -0.20313,-0.07071 -0.35429,-0.240033 -0.37554,-0.44723 -0.0228,-0.252542 0.14227,-0.410598 0.3062,-0.504529 0.1167,-0.06795 0.25451,-0.08778 0.38945,-0.06402 0.0284,0.0063 0.0568,0.0126 0.0896,0.02068 l 0.1987,0.06895 c 0.3025,0.105178 0.60678,0.206108 0.90928,0.311292 0.52959,0.180436 1.0551,0.284714 1.61081,0.391043 0.83086,0.165879 1.65909,0.325741 2.48996,0.491618 0.39236,0.07626 0.78904,0.179089 1.18511,0.22204 0.41118,0.04398 0.82342,0.04863 1.22824,0.119894 0.6179,0.106178 1.22036,0.285723 1.79407,0.533364 0.60032,0.258202 1.15943,0.589486 1.69793,0.957311 0.36581,0.249571 0.70656,0.533921 1.05894,0.803007 0.35058,0.273343 0.72631,0.487108 1.10373,0.721414 0.86389,0.51688 1.68719,1.166713 2.59145,1.60024 0.43529,0.207595 0.88401,0.395669 1.32553,0.600768 l 0.19152,0.08597 c 0.0266,0.01055 0.0559,0.02715 0.0789,0.04622 0.11338,0.07483 0.19729,0.182673 0.23134,0.310481 0.0463,0.172416 0.0524,0.403391 -0.14477,0.563649 z"
         style="fill:#231f20;stroke-width:0.04694053"
         inkscape:connector-curvature="0" />
      <path
         id="path2470"
         d="m 142.40642,85.022584 c 0,0 -0.25995,-0.08333 -0.26855,0.04742 0,0 -2.73637,-1.195659 -4.54157,-1.62909 l -0.68568,-0.436193 0.23356,-0.553241 1.97016,0.692709 z"
         style="fill:url(#linearGradient7514);stroke-width:0.04694053"
         inkscape:connector-curvature="0" />
      <rect
         transform="matrix(0.929435,0.36898589,-0.38893693,0.92126438,0,0)"
         id="rect2479"
         height="0.86383033"
         width="1.9370294"
         y="26.792664"
         x="156.99138"
         style="fill:url(#linearGradient7516);stroke-width:0.04694599" />
      <polygon
         id="polygon2488"
         points="595,474.9 560.9,474.9 559,478.6 596.9,478.6 "
         style="fill:url(#linearGradient7518)"
         transform="matrix(0.04434342,0.01760435,-0.0179666,0.042557,119.36555,52.426759)" />
      <polygon
         id="polygon2497"
         points="569.8,458.7 567.8,466.4 567.5,467.3 568.6,475 589.5,475 590.5,467.3 590.3,466.4 588.3,458.7 587.8,456.7 570.3,456.7 "
         style="fill:url(#linearGradient7520)"
         transform="matrix(0.04434342,0.01760435,-0.0179666,0.042557,119.36555,52.426759)" />
      <path
         id="path2506"
         d="m 136.50247,81.92343 0.66514,0.264066 c -0.0563,-0.11181 -0.15367,-0.20014 -0.28226,-0.251192 -0.12417,-0.04929 -0.26365,-0.05001 -0.38288,-0.01287 z"
         style="fill:url(#bm);stroke-width:0.04694053"
         inkscape:connector-curvature="0" />
      <path
         id="path2513"
         d="m 136.35797,82.044948 -0.17133,0.160553 -0.99514,-0.57395 c 0,0 -3.47652,-1.380181 -3.80183,-1.737902 l 0.32531,0.357721 c 0,0 3.45925,1.850344 4.16584,2.568132 0,0 0.083,-0.06149 0.31587,-0.0982 0,0 0.32425,-0.179351 0.57127,0.0082 0.25229,0.199541 -0.40999,-0.684508 -0.40999,-0.684508 z"
         style="fill:url(#linearGradient7522);stroke-width:0.04694053"
         inkscape:connector-curvature="0" />
      <rect
         transform="matrix(0.929435,0.36898589,-0.38893693,0.92126438,0,0)"
         style="stroke-width:0.04694599"
         id="rect2519"
         height="0.22173184"
         width="5.9589901"
         y="31.578377"
         x="146.49039" />
      <polygon
         style="fill:#008080"
         id="polygon2521"
         points="348.6,587 344.1,587 339,593.3 339,598 344.1,603.1 348.6,603.1 349.8,603.1 354.2,603.1 359.3,598 359.3,593.3 354.2,587 349.8,587 "
         transform="matrix(0.04434342,0.01760435,-0.0179666,0.042557,119.36555,52.426759)" />
      <polygon
         style="fill:#008080"
         id="polygon2523"
         points="451.1,587 455.6,587 460.6,593.3 460.6,598 455.6,603.1 451.1,603.1 449.9,603.1 445.4,603.1 440.4,598 440.4,593.3 445.4,587 449.9,587 "
         transform="matrix(0.04434342,0.01760435,-0.0179666,0.042557,119.36555,52.426759)" />
      <ellipse
         ry="1.0809426"
         rx="1.116416"
         transform="matrix(0.929435,0.36898589,-0.38893693,0.92126438,0,0)"
         style="stroke-width:0.04694599"
         id="circle2575"
         cy="30.566723"
         cx="155.84157" />
      <ellipse
         ry="0.86844963"
         rx="0.89694959"
         transform="matrix(0.929435,0.36898589,-0.38893693,0.92126438,0,0)"
         id="circle2600"
         cy="30.566723"
         cx="155.84157"
         style="fill:url(#bs);stroke-width:0.04694599" />
      <rect
         transform="matrix(0.929435,0.36898589,-0.38893693,0.92126438,0,0)"
         style="stroke-width:0.04694599"
         id="rect2602"
         height="0.39726955"
         width="0.24809244"
         y="28.718956"
         x="157.8931" />
      <rect
         transform="matrix(0.929435,0.36898589,-0.38893693,0.92126438,0,0)"
         style="stroke-width:0.04694599"
         id="rect2604"
         height="0.39726955"
         width="0.24809244"
         y="29.291767"
         x="155.71751" />
      <ellipse
         ry="0.78991961"
         rx="0.81584245"
         transform="matrix(0.929435,0.36898589,-0.38893693,0.92126438,0,0)"
         style="stroke-width:0.04694599"
         id="circle2606"
         cy="29.66132"
         cx="158.01715" />
      <ellipse
         ry="0.63285959"
         rx="0.65362817"
         transform="matrix(0.929435,0.36898589,-0.38893693,0.92126438,0,0)"
         id="circle2631"
         cy="29.66132"
         cx="158.01715"
         style="fill:url(#bt);stroke-width:0.04694599" />
      <ellipse
         ry="1.0809426"
         rx="1.116416"
         transform="matrix(0.929435,0.36898589,-0.38893693,0.92126438,0,0)"
         style="stroke-width:0.04694599"
         id="circle2633"
         cy="30.566723"
         cx="143.10298" />
      <ellipse
         ry="0.86844963"
         rx="0.89694959"
         transform="matrix(0.929435,0.36898589,-0.38893693,0.92126438,0,0)"
         id="circle2658"
         cy="30.566723"
         cx="143.10298"
         style="fill:url(#bu);stroke-width:0.04694599" />
      <rect
         transform="matrix(0.929435,0.36898589,-0.38893693,0.92126438,0,0)"
         style="stroke-width:0.04694599"
         id="rect2660"
         height="0.39726955"
         width="0.24809244"
         y="28.718956"
         x="140.80334" />
      <rect
         transform="matrix(0.929435,0.36898589,-0.38893693,0.92126438,0,0)"
         style="stroke-width:0.04694599"
         id="rect2662"
         height="0.39726955"
         width="0.24809244"
         y="29.291767"
         x="142.97893" />
      <ellipse
         ry="0.78991961"
         rx="0.81584245"
         transform="matrix(0.929435,0.36898589,-0.38893693,0.92126438,0,0)"
         style="stroke-width:0.04694599"
         id="circle2664"
         cy="29.66132"
         cx="140.9274" />
      <ellipse
         ry="0.63285959"
         rx="0.65362817"
         transform="matrix(0.929435,0.36898589,-0.38893693,0.92126438,0,0)"
         id="circle2689"
         cy="29.66132"
         cx="140.9274"
         style="fill:url(#bw);stroke-width:0.04694599" />
      <rect
         transform="matrix(0.929435,0.36898589,-0.38893693,0.92126438,0,0)"
         style="stroke-width:0.04694599"
         id="rect2691"
         height="0.26330653"
         width="0.79198748"
         y="33.403042"
         x="143.82339" />
      <rect
         transform="matrix(0.929435,0.36898589,-0.38893693,0.92126438,0,0)"
         style="stroke-width:0.04694599"
         id="rect2693"
         height="0.26330653"
         width="0.79198748"
         y="33.403042"
         x="154.33392" />
      <path
         id="path2702"
         d="m 137.03027,84.990131 c -0.16498,0.133261 -0.39698,0.155442 -0.59558,0.06169 -0.17377,-0.07893 -0.4336,-0.187054 -0.70505,-0.279909 -0.0506,-0.01511 -0.0993,-0.03447 -0.14993,-0.04959 -0.2573,-0.0773 -0.51293,-0.134065 -0.70047,-0.119084 -0.0809,0.0076 -0.15027,0.02481 -0.20287,0.06356 -0.20237,0.14823 -0.69768,0.046 -1.12709,-0.08968 -0.0816,-0.02743 -0.15879,-0.05311 -0.23154,-0.07701 -0.30692,-0.106942 -0.54099,-0.214772 -0.54099,-0.214772 0,0 -0.49462,-0.251024 -0.6952,-0.107045 l -9.26777,-3.67931 c -0.0371,-0.243292 -0.57303,-0.396434 -0.57303,-0.396434 0,0 -0.23862,-0.0848 -0.54099,-0.214774 L 121.479,79.785229 c -0.40868,-0.197031 -0.83571,-0.460974 -0.8728,-0.704268 -0.0113,-0.05913 -0.0421,-0.121059 -0.0942,-0.181509 -0.12287,-0.138219 -0.33992,-0.27408 -0.58549,-0.391447 -0.047,-0.02362 -0.094,-0.04724 -0.14718,-0.06836 -0.26066,-0.118401 -0.52409,-0.218 -0.70506,-0.279909 -0.20314,-0.07071 -0.35429,-0.240032 -0.37554,-0.447228 -0.0228,-0.252543 0.14228,-0.410599 0.3062,-0.504531 0.1167,-0.06795 0.25451,-0.08778 0.38945,-0.06402 0.0284,0.0063 0.0568,0.0126 0.0897,0.02068 l 0.1987,0.06895 16.99684,6.747748 0.19152,0.08597 c 0.0266,0.01055 0.0559,0.02715 0.0789,0.04622 0.11338,0.07483 0.19729,0.182674 0.23135,0.310482 0.04,0.174909 0.0461,0.405884 -0.15104,0.566142 z"
         style="fill:url(#linearGradient7524);stroke-width:0.04694053"
         inkscape:connector-curvature="0" />
    </g>
    <g
       id="g7837"
       transform="translate(-0.80319936,0.28348211)">
      <path
         id="path2418-9"
         d="m 77.133905,79.579401 c 0,0 0.293119,-0.01892 0.266284,0.118904 0,0 3.17278,-0.529442 5.168634,-0.510218 l 0.832412,-0.274306 -0.09149,-0.634352 -2.23834,0.206819 z"
         style="fill:url(#linearGradient7526);stroke-width:0.05032582"
         inkscape:connector-curvature="0" />
      <rect
         transform="matrix(0.9913502,-0.13124318,0.14274581,0.98975938,0,0)"
         id="rect2427-9"
         height="0.92193401"
         width="2.0858297"
         y="89.35067"
         x="70.768463"
         style="fill:url(#linearGradient7528);stroke-width:0.05032752" />
      <polygon
         id="polygon2436-2"
         points="205,474.9 239.1,474.9 241,478.6 203.1,478.6 "
         style="fill:url(#linearGradient7530)"
         transform="matrix(0.05093073,-0.00674263,0.00703755,0.04879641,69.269862,57.153819)" />
      <polygon
         id="polygon2445-9"
         points="230.2,458.7 232.2,466.4 232.5,467.3 231.4,475 210.5,475 209.5,467.3 209.7,466.4 211.7,458.7 212.2,456.7 229.7,456.7 "
         style="fill:url(#linearGradient7532)"
         transform="matrix(0.05093073,-0.00674263,0.00703755,0.04879641,69.269862,57.153819)" />
      <path
         id="path2454-6"
         d="m 84.121584,77.898446 -0.763961,0.10114 c 0.08919,-0.101319 0.214577,-0.167646 0.362276,-0.1872 0.142605,-0.01888 0.287861,0.01659 0.401685,0.08606 z"
         style="fill:url(#bh-1);stroke-width:0.05032582"
         inkscape:connector-curvature="0" />
      <path
         id="path2461-5"
         d="m 84.238594,78.061976 0.134235,0.210978 1.191909,-0.336816 c 0,0 3.992971,-0.528623 4.429159,-0.815118 l -0.436188,0.286495 c 0,0 -4.103668,1.020668 -5.034886,1.581559 0,0 -0.0694,-0.0853 -0.301603,-0.183849 0,0 -0.2881,-0.270172 -0.596295,-0.13986 -0.316975,0.141419 0.613669,-0.603389 0.613669,-0.603389 z"
         style="fill:url(#linearGradient7534);stroke-width:0.05032582"
         inkscape:connector-curvature="0" />
      <path
         id="path2463-5"
         d="m 103.78825,78.154175 c -0.0788,0.209346 -0.28162,0.350571 -0.51801,0.366947 -0.20514,0.01721 -0.50633,0.05211 -0.8098,0.107208 -0.0553,0.0123 -0.11135,0.01972 -0.16667,0.03201 -0.28169,0.06216 -0.55038,0.142485 -0.71597,0.253917 -0.0708,0.04915 -0.12555,0.101159 -0.15276,0.164435 -0.10514,0.242668 -0.62145,0.405505 -1.09527,0.503043 -0.091,0.01702 -0.17685,0.03336 -0.25763,0.04903 -0.344222,0.06049 -0.62136,0.08226 -0.62136,0.08226 0,0 -0.598538,0.02454 -0.704382,0.262327 -0.01545,0.03685 -0.0193,0.08212 -0.01226,0.130917 l 0.123861,0.858817 c 0,0 0.209906,0.807643 0.573233,1.311524 0.195018,0.27255 0.411592,1.054446 0.564734,1.72042 l -0.697751,0.09237 c -0.0691,-0.299167 -0.123417,-0.495861 -0.155215,-0.536405 0,0 -0.289321,-0.926423 -0.665448,-1.339099 -0.376127,-0.412677 -0.557624,-1.383212 -0.557624,-1.383212 l -0.876008,0.115973 c 0,0 -0.232206,-0.09855 -0.21013,-0.305357 l -0.201648,-0.102598 c 0,0 -0.218898,1.829137 -0.555577,1.833926 l -0.01648,0.101639 -2.328404,0.338091 -2.336851,0.279534 -0.04463,-0.09355 c -0.325419,0.08286 -1.053835,-1.620859 -1.053835,-1.620859 l -0.165053,0.151144 c 0.07908,0.188442 -0.120919,0.349187 -0.120919,0.349187 l -0.87601,0.115974 c 0,0 0.100008,0.98132 -0.145221,1.476258 -0.245228,0.494936 -0.261492,1.461815 -0.261492,1.461815 -0.01984,0.04241 -0.01574,0.250725 0.0024,0.556632 l -0.697752,0.09237 c -0.04109,-0.680808 -0.05904,-1.489 0.05662,-1.802681 0.212189,-0.580072 0.18054,-1.411314 0.18054,-1.411314 L 88.145637,81.50806 c -0.0019,-0.04947 -0.01847,-0.09204 -0.04886,-0.122823 -0.169886,-0.20626 -0.752237,-0.06949 -0.752237,-0.06949 0,0 -0.268525,0.04549 -0.621355,0.08226 l -0.261858,0.01974 c -0.48877,0.0299 -1.03182,0.0073 -1.201706,-0.19895 -0.04339,-0.04896 -0.106454,-0.09034 -0.188479,-0.119259 -0.190925,-0.06423 -0.467897,-0.0773 -0.761017,-0.05838 -0.05673,0.0025 -0.113454,0.0051 -0.174571,0.01317 -0.307696,0.02581 -0.607484,0.07048 -0.809799,0.107208 -0.22778,0.0401 -0.462265,-0.03826 -0.597371,-0.219284 -0.161811,-0.222246 -0.09671,-0.45464 0.003,-0.626971 0.0704,-0.123694 0.187167,-0.213746 0.325551,-0.261904 0.02985,-0.0089 0.05971,-0.01785 0.09466,-0.02745 l 0.222689,-0.03942 c 0.339124,-0.05982 0.677546,-0.124509 1.016671,-0.184323 0.591666,-0.108166 1.137126,-0.284809 1.711735,-0.475255 0.862971,-0.278349 1.720147,-0.560904 2.583117,-0.839254 0.406372,-0.133364 0.831542,-0.244352 1.2228,-0.410526 0.405837,-0.173075 0.790761,-0.383164 1.205912,-0.527635 0.632209,-0.222937 1.290956,-0.369821 1.960963,-0.43863 0.700566,-0.07286 1.403614,-0.05653 2.107903,0.0044 0.478247,0.04111 0.952645,0.127495 1.429319,0.19368 0.477378,0.07107 0.944904,0.07382 1.425431,0.09474 1.089083,0.02987 2.214555,0.204099 3.294665,0.135699 0.51932,-0.03394 1.04022,-0.09296 1.56394,-0.132457 l 0.2255,-0.01991 c 0.0306,-0.004 0.0669,-0.0039 0.0989,0.0018 0.14683,0.0104 0.28471,0.06674 0.38748,0.167506 0.13896,0.135761 0.27319,0.346739 0.17965,0.597818 z"
         style="fill:#231f20;stroke-width:0.05032582"
         inkscape:connector-curvature="0" />
      <path
         id="path2470-3"
         d="m 108.79245,75.38818 c 0,0 -0.28749,0.05795 -0.22265,0.183633 0,0 -3.20375,0.314736 -5.11938,0.851794 l -0.87886,-0.04775 -0.0915,-0.634353 2.213,-0.382486 z"
         style="fill:url(#linearGradient7536);stroke-width:0.05032582"
         inkscape:connector-curvature="0" />
      <rect
         transform="matrix(0.9913502,-0.13124318,0.14274581,0.98975938,0,0)"
         id="rect2479-8"
         height="0.92193401"
         width="2.0858297"
         y="89.35067"
         x="89.052864"
         style="fill:url(#linearGradient7538);stroke-width:0.05032752" />
      <polygon
         id="polygon2488-6"
         points="595,474.9 560.9,474.9 559,478.6 596.9,478.6 "
         style="fill:url(#linearGradient7540)"
         transform="matrix(0.05093073,-0.00674263,0.00703755,0.04879641,69.269862,57.153819)" />
      <polygon
         id="polygon2497-7"
         points="569.8,458.7 567.8,466.4 567.5,467.3 568.6,475 589.5,475 590.5,467.3 590.3,466.4 588.3,458.7 587.8,456.7 570.3,456.7 "
         style="fill:url(#linearGradient7542)"
         transform="matrix(0.05093073,-0.00674263,0.00703755,0.04879641,69.269862,57.153819)" />
      <path
         id="path2506-3"
         d="m 101.59083,75.585723 0.76396,-0.10114 c -0.11453,-0.07435 -0.25399,-0.105613 -0.40169,-0.08606 -0.1426,0.01888 -0.27238,0.09076 -0.36227,0.1872 z"
         style="fill:url(#bm-3);stroke-width:0.05032582"
         inkscape:connector-curvature="0" />
      <path
         id="path2513-6"
         d="m 101.52449,75.773526 -0.0695,0.237949 -1.24258,-0.01452 c 0,0 -3.992971,0.528623 -4.493907,0.366192 l 0.500936,0.162431 c 0,0 4.238791,-0.08378 5.293871,0.214152 0,0 0.0427,-0.10013 0.23826,-0.255321 0,0 0.20083,-0.334901 0.53437,-0.289546 0.34512,0.05376 -0.76146,-0.421338 -0.76146,-0.421338 z"
         style="fill:url(#linearGradient7544);stroke-width:0.05032582"
         inkscape:connector-curvature="0" />
      <rect
         transform="matrix(0.9913502,-0.13124318,0.14274581,0.98975938,0,0)"
         style="stroke-width:0.05032752"
         id="rect2519-6"
         height="0.23664618"
         width="6.4167523"
         y="94.45829"
         x="77.745201" />
      <polygon
         style="fill:#008080"
         id="polygon2521-9"
         points="348.6,587 344.1,587 339,593.3 339,598 344.1,603.1 348.6,603.1 349.8,603.1 354.2,603.1 359.3,598 359.3,593.3 354.2,587 349.8,587 "
         transform="matrix(0.05093073,-0.00674263,0.00703755,0.04879641,69.269862,57.153819)" />
      <polygon
         style="fill:#008080"
         id="polygon2523-3"
         points="451.1,587 455.6,587 460.6,593.3 460.6,598 455.6,603.1 451.1,603.1 449.9,603.1 445.4,603.1 440.4,598 440.4,593.3 445.4,587 449.9,587 "
         transform="matrix(0.05093073,-0.00674263,0.00703755,0.04879641,69.269862,57.153819)" />
      <ellipse
         ry="1.1536499"
         rx="1.2021778"
         transform="matrix(0.9913502,-0.13124318,0.14274581,0.98975938,0,0)"
         style="stroke-width:0.05032752"
         id="circle2575-5"
         cy="93.378586"
         cx="87.814728" />
      <ellipse
         ry="0.92686403"
         rx="0.96585214"
         transform="matrix(0.9913502,-0.13124318,0.14274581,0.98975938,0,0)"
         id="circle2600-2"
         cy="93.378586"
         cx="87.814728"
         style="fill:url(#bs-7);stroke-width:0.05032752" />
      <rect
         transform="matrix(0.9913502,-0.13124318,0.14274581,0.98975938,0,0)"
         style="stroke-width:0.05032752"
         id="rect2602-4"
         height="0.42399105"
         width="0.26715061"
         y="91.40654"
         x="90.023857" />
      <rect
         transform="matrix(0.9913502,-0.13124318,0.14274581,0.98975938,0,0)"
         style="stroke-width:0.05032752"
         id="rect2604-0"
         height="0.42399105"
         width="0.26715061"
         y="92.017876"
         x="87.681152" />
      <ellipse
         ry="0.84305191"
         rx="0.87851453"
         transform="matrix(0.9913502,-0.13124318,0.14274581,0.98975938,0,0)"
         style="stroke-width:0.05032752"
         id="circle2606-0"
         cy="92.412285"
         cx="90.157433" />
      <ellipse
         ry="0.67542756"
         rx="0.70383912"
         transform="matrix(0.9913502,-0.13124318,0.14274581,0.98975938,0,0)"
         id="circle2631-6"
         cy="92.412285"
         cx="90.157433"
         style="fill:url(#bt-2);stroke-width:0.05032752" />
      <ellipse
         ry="1.1536499"
         rx="1.2021778"
         transform="matrix(0.9913502,-0.13124318,0.14274581,0.98975938,0,0)"
         style="stroke-width:0.05032752"
         id="circle2633-8"
         cy="93.378586"
         cx="74.097572" />
      <ellipse
         ry="0.92686403"
         rx="0.96585214"
         transform="matrix(0.9913502,-0.13124318,0.14274581,0.98975938,0,0)"
         id="circle2658-5"
         cy="93.378586"
         cx="74.097572"
         style="fill:url(#bu-5);stroke-width:0.05032752" />
      <rect
         transform="matrix(0.9913502,-0.13124318,0.14274581,0.98975938,0,0)"
         style="stroke-width:0.05032752"
         id="rect2660-4"
         height="0.42399105"
         width="0.26715061"
         y="91.40654"
         x="71.621292" />
      <rect
         transform="matrix(0.9913502,-0.13124318,0.14274581,0.98975938,0,0)"
         style="stroke-width:0.05032752"
         id="rect2662-9"
         height="0.42399105"
         width="0.26715061"
         y="92.017876"
         x="73.963989" />
      <ellipse
         ry="0.84305191"
         rx="0.87851453"
         transform="matrix(0.9913502,-0.13124318,0.14274581,0.98975938,0,0)"
         style="stroke-width:0.05032752"
         id="circle2664-4"
         cy="92.412285"
         cx="71.754868" />
      <ellipse
         ry="0.67542756"
         rx="0.70383912"
         transform="matrix(0.9913502,-0.13124318,0.14274581,0.98975938,0,0)"
         id="circle2689-6"
         cy="92.412285"
         cx="71.754868"
         style="fill:url(#bw-0);stroke-width:0.05032752" />
      <rect
         transform="matrix(0.9913502,-0.13124318,0.14274581,0.98975938,0,0)"
         style="stroke-width:0.05032752"
         id="rect2691-8"
         height="0.2810173"
         width="0.85282701"
         y="96.405685"
         x="74.873337" />
      <rect
         transform="matrix(0.9913502,-0.13124318,0.14274581,0.98975938,0,0)"
         style="stroke-width:0.05032752"
         id="rect2693-3"
         height="0.2810173"
         width="0.85282701"
         y="96.405685"
         x="86.191269" />
      <path
         id="path2702-2"
         d="m 103.78825,78.154175 c -0.0788,0.209346 -0.28162,0.350571 -0.51801,0.366947 -0.20514,0.01721 -0.50633,0.05211 -0.8098,0.107208 -0.0553,0.0123 -0.11135,0.01972 -0.16667,0.03201 -0.28169,0.06216 -0.55038,0.142485 -0.71597,0.253917 -0.0708,0.04915 -0.12555,0.101159 -0.15276,0.164435 -0.10514,0.242668 -0.62145,0.405505 -1.09527,0.503043 -0.091,0.01702 -0.17685,0.03336 -0.25763,0.04903 -0.344222,0.06049 -0.62136,0.08226 -0.62136,0.08226 0,0 -0.598538,0.02454 -0.704382,0.262327 l -10.644523,1.40921 c -0.169887,-0.206257 -0.752237,-0.06949 -0.752237,-0.06949 0,0 -0.268528,0.04549 -0.621356,0.08226 l -0.261859,0.01974 c -0.488768,0.0299 -1.031818,0.0073 -1.201705,-0.198951 -0.04339,-0.04895 -0.106454,-0.09034 -0.188479,-0.119258 -0.190927,-0.06423 -0.467897,-0.0773 -0.761016,-0.05838 -0.05673,0.0025 -0.113456,0.0051 -0.174573,0.01317 -0.307696,0.02581 -0.607483,0.07048 -0.809798,0.107207 -0.227782,0.0401 -0.462265,-0.03826 -0.59737,-0.219283 -0.161812,-0.222246 -0.09671,-0.45464 0.003,-0.626972 0.07039,-0.123694 0.187166,-0.213746 0.325549,-0.261903 0.02985,-0.0089 0.05971,-0.01785 0.09466,-0.02745 l 0.222689,-0.03942 19.52175,-2.584452 0.2255,-0.01991 c 0.0306,-0.004 0.0669,-0.0039 0.0989,0.0018 0.14683,0.0104 0.28471,0.06674 0.38748,0.167507 0.13457,0.141315 0.2688,0.352293 0.17526,0.603372 z"
         style="fill:url(#linearGradient7546);stroke-width:0.05032582"
         inkscape:connector-curvature="0" />
    </g>
    <g
       style="display:inline"
       id="g5923"
       transform="matrix(1.5019702,0,0,1.5019702,-463.59539,10.056761)">
      <rect
         id="rect5095"
         height="1.8520833"
         width="0.52916664"
         style="fill:#36404d;stroke-width:0.26458332"
         y="59.088966"
         x="379.13446" />
      <g
         id="g5101"
         transform="matrix(0.26458333,0,0,0.26458333,374.10738,57.236885)">
        <circle
           id="circle5097"
           r="2.5"
           cy="13"
           cx="20"
           style="fill:#4b6477" />
        <path
           id="path5099"
           d="m 20,11 c 1.103,0 2,0.897 2,2 0,1.103 -0.897,2 -2,2 -1.103,0 -2,-0.897 -2,-2 0,-1.103 0.897,-2 2,-2 m 0,-1 c -1.657,0 -3,1.343 -3,3 0,1.657 1.343,3 3,3 1.657,0 3,-1.343 3,-3 0,-1.657 -1.343,-3 -3,-3 z"
           style="fill:#36404d"
           inkscape:connector-curvature="0" />
      </g>
      <g
         id="g5109"
         transform="matrix(0.26458333,0,0,0.26458333,374.10738,57.236885)">
        <rect
           id="rect5103"
           height="7"
           width="15"
           style="fill:#b0c1d4"
           y="1.5"
           x="12.5" />
        <g
           id="g5107">
          <path
             id="path5105"
             d="M 27,2 V 8 H 13 V 2 H 27 M 28,1 H 12 v 8 h 16 z"
             style="fill:#66798f"
             inkscape:connector-curvature="0" />
        </g>
      </g>
      <g
         id="g5117"
         transform="matrix(0.26458333,0,0,0.26458333,374.10738,57.236885)">
        <path
           id="path5111"
           d="m 19,38.5 c -1.379,0 -2.5,-1.121 -2.5,-2.5 v -7.5 h 7 V 36 c 0,1.379 -1.121,2.5 -2.5,2.5 z"
           style="fill:#b0c1d4"
           inkscape:connector-curvature="0" />
        <g
           id="g5115">
          <path
             id="path5113"
             d="m 23,29 v 7 c 0,1.103 -0.897,2 -2,2 h -2 c -1.103,0 -2,-0.897 -2,-2 v -7 h 6 m 1,-1 h -8 v 8 c 0,1.657 1.343,3 3,3 h 2 c 1.657,0 3,-1.343 3,-3 z"
             style="fill:#66798f"
             inkscape:connector-curvature="0" />
        </g>
      </g>
      <circle
         id="circle5119"
         r="0.26458332"
         cy="58.559803"
         cx="380.19281"
         style="fill:#4b6477;stroke-width:0.26458332" />
      <circle
         id="circle5121"
         r="0.26458332"
         cy="58.559803"
         cx="378.60529"
         style="fill:#4b6477;stroke-width:0.26458332" />
      <g
         id="g5127"
         transform="matrix(0.26458333,0,0,0.26458333,374.10738,57.236885)">
        <path
           id="path5123"
           d="m 12,30.5 c -0.656,0 -1.222,-0.49 -1.314,-1.141 L 9.498,13.962 9.5,12.5 h 21 V 14 L 29.312,29.393 C 29.222,30.01 28.656,30.5 28,30.5 Z"
           style="fill:#e1ebf2"
           inkscape:connector-curvature="0" />
        <path
           id="path5125"
           d="m 30,13 v 0.961 L 28.815,29.315 C 28.746,29.707 28.4,30 28,30 H 12 c -0.4,0 -0.746,-0.293 -0.815,-0.685 L 10,13.961 V 13 h 20 m 1,-1 H 9 v 2 l 1.191,15.431 C 10.319,30.331 11.09,31 12,31 h 16 c 0.91,0 1.681,-0.669 1.809,-1.569 L 31,14 Z"
           style="fill:#66798f"
           inkscape:connector-curvature="0" />
      </g>
      <g
         id="g5131"
         transform="matrix(0.26458333,0,0,0.26458333,374.10738,57.236885)">
        <rect
           id="rect5129"
           height="6"
           width="10"
           style="fill:#66798f"
           y="18"
           x="15" />
      </g>
      <line
         id="line5133"
         y2="58.385704"
         x2="375.22418"
         y1="60.941051"
         x1="376.2825"
         style="fill:none;stroke:#66798f;stroke-width:0.52916664;stroke-miterlimit:10" />
      <g
         id="g5139"
         transform="matrix(0.26458333,0,0,0.26458333,374.10738,57.236885)">
        <circle
           id="circle5135"
           r="1.5"
           cy="14"
           cx="9"
           style="fill:#4b6477" />
        <path
           id="path5137"
           d="m 9,13 c 0.551,0 1,0.449 1,1 0,0.551 -0.449,1 -1,1 -0.551,0 -1,-0.449 -1,-1 0,-0.551 0.449,-1 1,-1 m 0,-1 c -1.105,0 -2,0.895 -2,2 0,1.105 0.895,2 2,2 1.105,0 2,-0.895 2,-2 0,-1.105 -0.895,-2 -2,-2 z"
           style="fill:#36404d"
           inkscape:connector-curvature="0" />
      </g>
      <rect
         id="rect5141"
         height="0.26458332"
         width="0.79374999"
         style="fill:#66798f;stroke-width:0.26458332"
         y="65.703552"
         x="379.66364" />
      <rect
         id="rect5143"
         height="0.26458332"
         width="0.52916664"
         style="fill:#66798f;stroke-width:0.26458332"
         y="66.761887"
         x="379.66364" />
      <rect
         id="rect5145"
         height="0.26458332"
         width="0.79374999"
         style="fill:#66798f;stroke-width:0.26458332"
         y="66.232719"
         x="379.66364" />
      <rect
         id="rect5147"
         height="0.26458332"
         width="0.79374999"
         style="fill:#66798f;stroke-width:0.26458332"
         y="65.703552"
         x="378.34073" />
      <rect
         id="rect5149"
         height="0.26458332"
         width="0.52916664"
         style="fill:#66798f;stroke-width:0.26458332"
         y="66.761887"
         x="378.60529" />
      <rect
         id="rect5151"
         height="0.26458332"
         width="0.79374999"
         style="fill:#66798f;stroke-width:0.26458332"
         y="66.232719"
         x="378.34073" />
      <path
         inkscape:connector-curvature="0"
         id="path5153"
         d="m 375.08965,58.550833 c 0.43841,0 0.79375,-0.355336 0.79375,-0.79375 v -0.264584 h -0.26458 v 0.264584 c 0,0.291835 -0.23734,0.529166 -0.52917,0.529166 -0.29184,0 -0.52917,-0.237331 -0.52917,-0.529166 v -0.264584 h -0.26458 v 0.264584 c 0,0.438414 0.35533,0.79375 0.79375,0.79375 z"
         style="fill:#66798f;stroke-width:0.26458332" />
      <line
         id="line5155"
         y2="58.385704"
         x2="383.3678"
         y1="60.941051"
         x1="382.30948"
         style="fill:none;stroke:#66798f;stroke-width:0.52916664;stroke-miterlimit:10" />
      <path
         inkscape:connector-curvature="0"
         id="path5157"
         d="m 383.3678,58.562044 c -0.43842,0 -0.79375,-0.355336 -0.79375,-0.79375 V 57.50371 h 0.26458 v 0.264584 c 0,0.291835 0.23733,0.529166 0.52917,0.529166 0.29183,0 0.52916,-0.237331 0.52916,-0.529166 V 57.50371 h 0.26459 v 0.264584 c 0,0.438414 -0.35534,0.79375 -0.79375,0.79375 z"
         style="fill:#66798f;stroke-width:0.26458332" />
      <g
         id="g5163"
         transform="matrix(0.26458333,0,0,0.26458333,374.10738,57.236885)">
        <circle
           id="circle5159"
           r="1.5"
           cy="14"
           cx="31"
           style="fill:#4b6477" />
        <path
           id="path5161"
           d="m 31,13 c 0.551,0 1,0.449 1,1 0,0.551 -0.449,1 -1,1 -0.551,0 -1,-0.449 -1,-1 0,-0.551 0.449,-1 1,-1 m 0,-1 c -1.105,0 -2,0.895 -2,2 0,1.105 0.895,2 2,2 1.105,0 2,-0.895 2,-2 0,-1.105 -0.895,-2 -2,-2 z"
           style="fill:#36404d"
           inkscape:connector-curvature="0" />
      </g>
    </g>
    <path
       style="fill:none;fill-rule:evenodd;stroke:#000000;stroke-width:0.26458332px;stroke-linecap:butt;stroke-linejoin:miter;stroke-opacity:1"
       d="m 90.115734,82.238178 9.184244,13.824806"
       id="path7779"
       inkscape:connector-type="polyline"
       inkscape:connector-curvature="0"
       inkscape:connection-start="#polygon2521-9"
       inkscape:connection-end="#path7548" />
    <path
       style="display:inline;fill:none;fill-rule:evenodd;stroke:#000000;stroke-width:0.26458332px;stroke-linecap:butt;stroke-linejoin:miter;stroke-opacity:1"
       d="m 95.91505,83.794474 -0.924935,5.724507"
       id="path7781"
       inkscape:connector-type="polyline"
       inkscape:connector-curvature="0"
       inkscape:connection-start="#polygon2523-3"
       sodipodi:nodetypes="cc" />
    <path
       style="fill:none;fill-rule:evenodd;stroke:#000000;stroke-width:0.26458332px;stroke-linecap:butt;stroke-linejoin:miter;stroke-opacity:1"
       d="M 124.7127,85.239074 112.83533,96.187337"
       id="path7787"
       inkscape:connector-type="polyline"
       inkscape:connector-curvature="0"
       inkscape:connection-start="#polygon2523"
       inkscape:connection-end="#path7548-3" />
    <path
       style="fill:none;fill-rule:evenodd;stroke:#000000;stroke-width:0.25291547px;stroke-linecap:butt;stroke-linejoin:miter;stroke-opacity:1"
       d="m 120.56632,84.05429 -0.6687,5.632678"
       id="path7907"
       inkscape:connector-type="polyline"
       inkscape:connector-curvature="0"
       sodipodi:nodetypes="cc" />
  </g>
</svg>
